0.7.20.2 -> 20
0.7.25.3 -> 42
0.8.10.3 -> 618
0.8.13.2 -> 60
0.9.7.5 -> 27
0.9.7.7 -> 85
0.9.7.8 -> 750
0.9.7.9 -> 11365
0.9.9.1 -> 318
0.9.12.1 -> 90
1.0.9.2 -> 153
1.0.9.3 -> 40
1.0.9.4 -> 13
1.0.9.5 -> 19
1.2.3.4 -> 37
2.84.217.212 -> 2
2.108.119.198 -> 18
3.14.0.0 -> 15
5.9.28.15 -> 390
5.9.30.18 -> 18
5.9.63.113 -> 30
5.9.120.130 -> 3
5.9.120.136 -> 3
5.9.120.171 -> 16
5.9.121.211 -> 46
5.9.121.212 -> 57
5.9.121.213 -> 3
5.9.122.116 -> 18
5.9.133.67 -> 33
5.9.138.125 -> 30
5.9.143.77 -> 16
5.9.149.14 -> 3
5.9.156.178 -> 30
5.9.232.83 -> 16
5.9.232.84 -> 16
5.9.251.229 -> 16
5.39.64.195 -> 105
5.45.110.136 -> 20
5.63.153.40 -> 51
5.63.153.125 -> 170
5.63.157.28 -> 85
5.63.157.73 -> 102
5.83.131.103 -> 28
5.101.158.31 -> 21
5.135.61.40 -> 13
5.135.160.159 -> 12
5.135.229.162 -> 10
5.149.146.221 -> 20
5.150.194.11 -> 2
5.153.24.140 -> 29
5.196.64.180 -> 13
8.28.119.195 -> 2
10.0.0.9 -> 12
10.0.0.10 -> 24
10.0.0.52 -> 43
10.0.0.238 -> 40
10.0.1.12 -> 24
10.0.2.4 -> 26
10.0.2.57 -> 47
10.0.2.236 -> 24
10.0.11.109 -> 10
10.4.5.100 -> 13
10.4.5.101 -> 13
10.4.5.102 -> 13
10.4.51.196 -> 26
10.16.62.10 -> 126
10.16.64.17 -> 120
10.16.64.35 -> 100
10.17.2.126 -> 4
10.17.2.136 -> 8
10.32.4.99 -> 7
10.34.128.33 -> 38
10.41.0.16 -> 7
10.45.31.190 -> 2
10.76.115.37 -> 13
10.88.8.237 -> 13
10.88.9.9 -> 13
10.88.9.16 -> 13
10.88.9.40 -> 13
10.88.10.121 -> 7
10.88.10.133 -> 13
10.88.11.126 -> 13
10.88.11.190 -> 13
10.100.7.238 -> 56
10.135.69.251 -> 13
10.153.166.142 -> 18
10.154.164.170 -> 18
10.154.166.142 -> 15
10.200.3.120 -> 7
12.149.174.11 -> 3
12.149.174.12 -> 3
12.149.174.13 -> 3
12.196.121.10 -> 2
14.202.165.96 -> 2
17.134.163.135 -> 2
23.20.57.231 -> 10
23.20.142.59 -> 10
23.21.112.171 -> 2
23.22.33.148 -> 2
23.22.51.183 -> 2
23.22.94.212 -> 5
23.22.161.98 -> 18
23.22.181.49 -> 15
23.23.1.176 -> 7
23.23.27.189 -> 18
23.23.76.161 -> 18
23.23.112.251 -> 8
23.23.127.92 -> 2
23.23.201.203 -> 10
23.23.242.203 -> 3
23.24.119.61 -> 3
23.92.31.165 -> 8
23.92.97.153 -> 14
23.92.98.150 -> 56
23.92.99.4 -> 7
23.92.101.81 -> 28
23.92.103.199 -> 14
23.92.104.72 -> 14
23.92.104.137 -> 14
23.92.104.200 -> 14
23.92.105.205 -> 14
23.92.107.76 -> 28
23.92.107.139 -> 14
23.97.230.211 -> 15
23.97.232.169 -> 15
23.97.233.195 -> 30
23.100.21.67 -> 6
23.101.139.146 -> 12
23.227.1.0 -> 20
23.227.8.46 -> 30
23.236.59.227 -> 8
23.251.132.44 -> 9
23.251.132.131 -> 18
23.251.138.204 -> 9
23.253.144.157 -> 15
24.106.216.17 -> 3
24.226.136.95 -> 15
31.7.2.140 -> 16
31.13.219.11 -> 3
31.22.86.126 -> 15
31.31.75.239 -> 16
31.44.93.26 -> 15
31.45.10.33 -> 2
31.186.96.132 -> 16
37.16.72.13 -> 6
37.16.72.28 -> 6
37.16.72.129 -> 6
37.16.72.192 -> 6
37.16.72.208 -> 6
37.16.72.227 -> 6
37.16.72.233 -> 13
37.26.93.214 -> 6
37.48.77.147 -> 15
37.58.92.184 -> 15
37.58.92.186 -> 15
37.58.92.188 -> 15
37.58.92.193 -> 15
37.58.92.195 -> 15
37.58.92.197 -> 15
37.58.92.198 -> 15
37.58.92.201 -> 15
37.58.92.202 -> 15
37.58.92.203 -> 15
37.59.11.16 -> 39
37.131.240.210 -> 23
37.131.240.211 -> 23
37.139.12.66 -> 10
37.187.20.53 -> 2
37.187.52.98 -> 16
37.187.76.112 -> 13
37.187.101.43 -> 18
37.187.114.31 -> 16
37.187.133.178 -> 13
37.187.136.53 -> 180
37.187.155.194 -> 13
37.187.157.71 -> 13
37.187.157.74 -> 13
37.187.157.78 -> 13
37.187.238.39 -> 15
37.187.252.103 -> 105
37.200.98.169 -> 12
37.200.99.33 -> 16
37.205.16.10 -> 14
38.80.67.207 -> 2
38.111.147.0 -> 2
38.140.1.170 -> 10
41.73.132.118 -> 3
41.77.113.26 -> 6
42.2.197.223 -> 15
43.245.48.37 -> 135
46.4.66.76 -> 5
46.4.83.163 -> 6
46.4.88.134 -> 5
46.4.116.138 -> 9
46.4.194.234 -> 18
46.17.203.253 -> 15
46.28.17.29 -> 15
46.29.12.35 -> 15
46.29.152.10 -> 380
46.38.225.140 -> 36
46.42.17.35 -> 20
46.61.208.101 -> 15
46.105.108.70 -> 13
46.105.116.158 -> 24
46.105.156.23 -> 12
46.137.1.145 -> 19
46.137.37.150 -> 5
46.137.59.76 -> 8
46.137.69.200 -> 8
46.137.72.185 -> 8
46.137.138.195 -> 2
46.137.186.143 -> 8
46.165.217.40 -> 20
46.171.26.114 -> 8
46.185.66.217 -> 15
46.218.250.234 -> 13
46.231.183.230 -> 15
46.245.176.2 -> 2
50.16.153.254 -> 2
50.17.1.20 -> 19
50.17.251.115 -> 2
50.19.9.163 -> 10
50.19.21.109 -> 3
50.19.26.97 -> 18
50.19.73.73 -> 10
50.19.80.62 -> 3
50.22.233.20 -> 4
50.31.27.98 -> 3
50.56.10.233 -> 2
50.56.10.235 -> 2
50.56.33.50 -> 30
50.57.31.83 -> 3
50.57.209.92 -> 156
50.57.209.100 -> 117
50.57.237.172 -> 4
50.62.160.10 -> 2
50.97.82.53 -> 180
50.97.227.67 -> 20
50.97.227.69 -> 30
50.112.131.3 -> 3
50.112.172.9 -> 30
50.116.25.44 -> 10
50.126.69.178 -> 40
50.159.31.57 -> 2
50.203.14.85 -> 8
54.64.15.254 -> 23
54.64.16.235 -> 45
54.64.51.60 -> 4
54.64.114.100 -> 14
54.68.154.224 -> 13
54.70.155.130 -> 2
54.70.161.239 -> 9
54.70.228.177 -> 9
54.70.236.129 -> 9
54.71.78.102 -> 3
54.72.2.12 -> 2
54.72.39.202 -> 4
54.72.48.143 -> 9
54.72.81.190 -> 2
54.72.89.27 -> 2
54.72.102.109 -> 2
54.72.104.225 -> 60
54.73.104.54 -> 8
54.73.112.28 -> 8
54.73.145.38 -> 19
54.73.221.72 -> 8
54.75.33.93 -> 8
54.75.57.0 -> 8
54.75.224.57 -> 2
54.75.239.159 -> 8
54.76.26.52 -> 2
54.76.129.37 -> 2
54.76.150.33 -> 19
54.76.208.205 -> 26
54.76.208.241 -> 2
54.76.227.59 -> 9
54.77.28.241 -> 345
54.77.28.244 -> 84
54.77.41.217 -> 14
54.77.53.5 -> 2
54.77.57.109 -> 8
54.77.61.233 -> 18
54.77.79.85 -> 42
54.77.114.242 -> 28
54.77.119.190 -> 56
54.77.125.51 -> 55
54.77.130.34 -> 2
54.77.181.41 -> 401
54.78.86.65 -> 8
54.79.5.99 -> 21
54.79.20.85 -> 2
54.79.35.75 -> 2
54.79.43.16 -> 18
54.79.53.241 -> 2
54.79.61.8 -> 19
54.79.116.118 -> 18
54.80.15.219 -> 15
54.80.18.192 -> 15
54.80.29.193 -> 30
54.80.205.167 -> 15
54.80.206.168 -> 10
54.80.240.141 -> 4
54.81.31.26 -> 15
54.81.44.158 -> 15
54.81.119.188 -> 10
54.81.164.90 -> 15
54.81.207.170 -> 2
54.81.252.69 -> 15
54.82.42.236 -> 10
54.82.101.224 -> 15
54.82.149.56 -> 2
54.82.151.125 -> 10
54.82.217.51 -> 10
54.83.135.91 -> 15
54.83.181.16 -> 15
54.84.83.107 -> 2
54.84.109.253 -> 2
54.84.126.206 -> 4
54.84.157.211 -> 10
54.84.179.215 -> 13
54.84.191.5 -> 234
54.84.208.234 -> 3
54.84.228.30 -> 3
54.84.255.104 -> 27
54.85.59.129 -> 10
54.85.201.237 -> 2
54.85.210.237 -> 10
54.85.220.10 -> 10
54.85.255.242 -> 60
54.85.255.243 -> 15
54.85.255.244 -> 15
54.86.2.126 -> 4
54.86.8.9 -> 423
54.86.33.145 -> 3
54.86.75.172 -> 2
54.86.107.14 -> 2
54.86.112.24 -> 2
54.86.148.239 -> 2
54.86.157.236 -> 60
54.86.159.116 -> 2
54.86.174.210 -> 2
54.86.210.98 -> 2
54.86.227.114 -> 10
54.87.152.173 -> 14
54.87.184.208 -> 5
54.87.195.12 -> 15
54.87.227.218 -> 2
54.88.1.217 -> 5
54.88.7.82 -> 10
54.88.116.138 -> 2
54.88.121.33 -> 10
54.88.218.183 -> 2
54.89.47.212 -> 20
54.89.69.92 -> 14
54.89.70.122 -> 15
54.89.101.117 -> 18
54.89.102.108 -> 10
54.89.168.152 -> 4
54.89.210.193 -> 14
54.90.69.215 -> 30
54.90.153.215 -> 10
54.90.153.250 -> 10
54.90.208.208 -> 15
54.90.217.38 -> 15
54.90.228.250 -> 13
54.91.6.12 -> 3
54.91.87.30 -> 15
54.91.99.117 -> 20
54.91.126.147 -> 15
54.92.157.170 -> 15
54.92.198.204 -> 3
54.93.163.42 -> 14
54.144.26.30 -> 24
54.144.73.8 -> 10
54.144.194.149 -> 3
54.144.246.73 -> 2
54.145.14.153 -> 30
54.145.102.147 -> 2
54.145.112.238 -> 15
54.146.6.236 -> 19
54.147.52.33 -> 7
54.147.174.246 -> 15
54.148.32.106 -> 2
54.148.106.42 -> 13
54.148.155.35 -> 2
54.149.94.243 -> 3
54.149.124.169 -> 28
54.154.5.6 -> 28
54.154.14.114 -> 14
54.154.18.44 -> 56
54.154.22.11 -> 84
54.154.25.224 -> 42
54.154.27.80 -> 268
54.154.31.52 -> 14
54.154.31.107 -> 28
54.154.73.33 -> 2
54.154.92.25 -> 2
54.154.92.56 -> 2
54.154.95.43 -> 2
54.160.114.16 -> 2
54.160.168.10 -> 15
54.160.195.240 -> 15
54.160.224.81 -> 13
54.160.227.141 -> 30
54.161.102.48 -> 15
54.161.120.253 -> 15
54.161.124.144 -> 15
54.164.27.111 -> 13
54.164.77.35 -> 8
54.164.87.142 -> 2
54.164.139.219 -> 10
54.164.158.146 -> 2
54.164.160.179 -> 2
54.164.207.85 -> 3
54.164.229.20 -> 2
54.164.229.113 -> 3
54.164.235.73 -> 2
54.164.245.246 -> 2
54.165.16.50 -> 50
54.165.20.194 -> 3
54.165.29.107 -> 3
54.165.46.160 -> 2
54.165.53.108 -> 20
54.165.73.236 -> 3
54.165.124.65 -> 20
54.165.147.135 -> 3
54.165.174.61 -> 2
54.165.179.1 -> 10
54.165.189.135 -> 129
54.165.193.198 -> 10
54.165.199.122 -> 4
54.165.228.106 -> 304
54.165.245.160 -> 4
54.166.121.149 -> 15
54.166.131.94 -> 10
54.166.153.179 -> 15
54.166.186.18 -> 2
54.166.246.47 -> 15
54.167.122.205 -> 15
54.169.170.234 -> 2
54.170.9.0 -> 8
54.170.232.102 -> 8
54.171.70.245 -> 2
54.171.135.75 -> 56
54.171.168.227 -> 2
54.171.169.20 -> 2
54.171.211.183 -> 3
54.172.14.144 -> 2
54.172.37.31 -> 19
54.172.48.162 -> 27
54.172.66.185 -> 4
54.172.86.37 -> 2
54.172.110.13 -> 90
54.172.131.230 -> 2
54.172.164.189 -> 9
54.172.176.132 -> 2
54.172.176.138 -> 3
54.172.200.61 -> 9
54.172.233.29 -> 2
54.172.238.99 -> 2
54.173.5.37 -> 2
54.173.6.142 -> 20
54.173.10.236 -> 9
54.173.38.212 -> 2
54.173.51.151 -> 20
54.173.76.153 -> 8
54.173.101.196 -> 2
54.173.140.194 -> 3
54.173.223.183 -> 18
54.173.226.7 -> 104
54.173.228.189 -> 28
54.173.241.209 -> 16
54.173.245.237 -> 9
54.174.45.16 -> 18
54.174.80.188 -> 2
54.174.99.74 -> 8
54.174.101.163 -> 2
54.174.101.204 -> 2
54.174.121.37 -> 2
54.174.126.84 -> 2
54.174.133.185 -> 2
54.174.232.167 -> 3
54.174.235.150 -> 2
54.174.240.79 -> 3
54.174.244.28 -> 3
54.174.249.195 -> 2
54.174.250.85 -> 19
54.175.18.186 -> 2
54.175.76.214 -> 60
54.175.84.151 -> 2
54.176.81.19 -> 28
54.176.124.175 -> 29
54.176.184.46 -> 56
54.183.25.189 -> 9
54.183.86.55 -> 153
54.183.131.158 -> 2
54.183.135.30 -> 369
54.183.135.47 -> 10
54.183.193.204 -> 6
54.183.198.11 -> 495
54.183.225.9 -> 20
54.183.234.4 -> 10
54.183.243.199 -> 10
54.184.2.119 -> 9
54.184.202.39 -> 20
54.186.10.255 -> 7
54.186.41.212 -> 2
54.186.146.130 -> 9
54.187.200.213 -> 2
54.187.216.43 -> 4
54.188.22.27 -> 10
54.188.22.85 -> 10
54.189.190.210 -> 9
54.189.206.220 -> 9
54.190.52.103 -> 9
54.191.79.157 -> 2
54.191.82.244 -> 15
54.191.136.177 -> 3
54.191.143.127 -> 20
54.191.151.155 -> 2
54.191.220.171 -> 3
54.193.20.177 -> 2
54.193.33.101 -> 2
54.193.126.19 -> 33
54.194.60.109 -> 2
54.194.93.59 -> 165
54.194.95.1 -> 27
54.194.110.66 -> 2
54.194.175.38 -> 2
54.194.179.232 -> 2
54.194.199.46 -> 2
54.196.117.107 -> 10
54.196.139.100 -> 13
54.196.151.120 -> 3
54.196.224.30 -> 15
54.196.244.132 -> 10
54.197.196.243 -> 9
54.197.220.49 -> 36
54.198.18.94 -> 14
54.198.38.158 -> 20
54.198.58.35 -> 15
54.201.110.198 -> 5
54.201.138.227 -> 4
54.203.177.239 -> 2
54.204.125.8 -> 10
54.204.155.166 -> 20
54.204.172.221 -> 19
54.204.219.92 -> 10
54.205.43.13 -> 10
54.205.51.22 -> 15
54.205.61.43 -> 15
54.205.67.238 -> 10
54.205.71.28 -> 30
54.205.82.23 -> 2
54.205.226.123 -> 10
54.205.253.104 -> 18
54.206.47.80 -> 35
54.206.47.178 -> 35
54.206.71.242 -> 6
54.207.57.55 -> 532
54.208.5.44 -> 2
54.208.12.204 -> 40
54.208.16.21 -> 22
54.208.18.128 -> 2
54.208.19.142 -> 5
54.208.23.242 -> 40
54.208.27.95 -> 2
54.208.28.84 -> 3
54.208.29.39 -> 18
54.208.31.110 -> 2
54.208.31.117 -> 2
54.208.31.242 -> 4
54.208.48.229 -> 21
54.208.51.240 -> 10
54.208.71.238 -> 8
54.208.90.20 -> 2
54.208.119.143 -> 3
54.208.159.77 -> 2
54.208.164.117 -> 20
54.208.181.93 -> 9
54.209.92.192 -> 70
54.209.166.251 -> 2
54.209.175.45 -> 10
54.209.197.208 -> 15
54.210.79.24 -> 2
54.210.134.90 -> 2
54.210.193.111 -> 3
54.210.195.196 -> 3
54.211.101.88 -> 15
54.211.125.164 -> 30
54.211.127.246 -> 2
54.211.222.62 -> 15
54.211.232.122 -> 15
54.213.25.23 -> 30
54.213.131.92 -> 74
54.214.34.248 -> 9
54.215.206.135 -> 30
54.216.2.166 -> 8
54.216.13.178 -> 8
54.216.37.217 -> 8
54.216.83.185 -> 8
54.216.140.101 -> 8
54.216.146.53 -> 8
54.216.197.179 -> 8
54.216.223.251 -> 8
54.217.207.221 -> 2
54.217.244.114 -> 10
54.217.244.115 -> 20
54.218.175.182 -> 2
54.220.74.29 -> 8
54.220.198.223 -> 8
54.221.110.1 -> 10
54.221.123.39 -> 15
54.221.135.233 -> 18
54.224.31.148 -> 15
54.224.55.7 -> 2
54.224.110.21 -> 9
54.224.118.57 -> 18
54.224.221.150 -> 30
54.225.249.146 -> 15
54.225.255.239 -> 20
54.226.216.209 -> 10
54.226.245.162 -> 18
54.227.1.150 -> 36
54.228.23.84 -> 8
54.228.45.118 -> 6
54.228.74.31 -> 8
54.228.117.151 -> 8
54.228.152.232 -> 8
54.229.3.235 -> 3
54.229.5.65 -> 2
54.229.26.32 -> 2
54.229.26.171 -> 2
54.229.71.252 -> 14
54.229.83.18 -> 3
54.234.14.36 -> 18
54.234.26.132 -> 15
54.234.125.55 -> 10
54.235.17.198 -> 10
54.235.32.75 -> 13
54.235.239.9 -> 30
54.236.75.235 -> 2
54.236.103.186 -> 6
54.236.248.175 -> 4
54.237.9.42 -> 18
54.237.240.207 -> 2
54.239.240.49 -> 31
54.241.145.10 -> 10
54.242.8.145 -> 10
54.242.36.62 -> 5
54.242.74.63 -> 10
54.243.44.118 -> 3
54.244.3.250 -> 2
54.244.23.17 -> 4
54.244.37.198 -> 2
54.244.37.241 -> 2
54.244.81.226 -> 19
54.244.93.33 -> 9
54.244.93.197 -> 9
54.244.93.202 -> 9
54.244.93.214 -> 9
54.244.93.255 -> 9
54.244.94.4 -> 9
54.244.94.5 -> 9
54.244.207.47 -> 3
54.245.107.230 -> 27
54.245.240.66 -> 9
54.246.91.166 -> 8
54.246.102.98 -> 10
54.246.128.203 -> 15
54.246.150.165 -> 15
54.246.165.168 -> 2
54.246.175.152 -> 11
54.246.194.184 -> 15
54.246.202.136 -> 23
54.247.38.33 -> 8
54.247.76.220 -> 10
54.251.97.43 -> 2
54.251.142.26 -> 50
54.251.189.246 -> 20
54.252.209.144 -> 24
54.252.217.239 -> 24
60.234.65.231 -> 6
61.91.94.4 -> 2
62.75.167.106 -> 13
62.75.198.179 -> 17
62.75.198.180 -> 13
62.76.75.110 -> 2
62.128.12.22 -> 9
62.152.49.202 -> 40
62.154.153.219 -> 36
62.160.32.32 -> 15
62.160.32.38 -> 14
62.160.32.79 -> 15
62.160.32.175 -> 14
62.160.32.182 -> 15
62.182.63.4 -> 6
62.182.63.40 -> 6
62.201.170.37 -> 8
62.201.170.40 -> 8
62.210.73.225 -> 13
62.210.74.60 -> 26
62.210.88.58 -> 8
62.210.88.174 -> 8
62.210.91.197 -> 13
62.210.138.59 -> 15
62.210.140.50 -> 36
62.210.141.205 -> 36
62.210.152.69 -> 13
62.216.45.138 -> 10
62.220.133.121 -> 8
62.220.146.131 -> 8
62.235.162.205 -> 16
63.78.241.4 -> 3
63.79.13.2 -> 2
63.151.165.178 -> 60
63.245.196.21 -> 6
63.245.200.21 -> 15
63.251.84.1 -> 8
64.96.2.12 -> 16
64.124.103.6 -> 2
64.132.40.2 -> 3
64.202.160.161 -> 2
64.244.34.154 -> 9
65.39.197.164 -> 1365
65.39.197.166 -> 30
65.39.197.167 -> 10
65.242.97.254 -> 3
66.33.206.8 -> 30
66.77.197.8 -> 6
66.135.34.21 -> 10
66.135.35.108 -> 10
66.150.9.117 -> 6
66.179.72.196 -> 2
66.179.75.84 -> 2
66.187.239.16 -> 2
66.228.49.146 -> 8
67.132.206.254 -> 83
67.172.155.8 -> 15
67.202.196.196 -> 45
67.207.44.50 -> 10
67.213.93.228 -> 18
68.13.175.124 -> 10
68.71.48.106 -> 8
68.98.86.161 -> 10
69.10.140.234 -> 24
69.20.70.15 -> 40
69.20.116.180 -> 2
69.43.196.140 -> 26
69.64.48.152 -> 10
69.64.139.200 -> 2
70.38.91.237 -> 10
70.73.101.64 -> 15
70.168.108.194 -> 2
71.112.166.67 -> 13
72.32.74.12 -> 2
72.32.152.84 -> 130
72.44.51.206 -> 10
72.66.69.59 -> 2
72.131.118.26 -> 10
72.207.1.225 -> 10
73.187.12.10 -> 10
73.187.141.216 -> 10
74.11.66.199 -> 19
74.63.142.180 -> 10
74.63.142.188 -> 390
74.63.198.4 -> 20
74.113.232.134 -> 10
74.113.232.135 -> 10
74.113.232.138 -> 10
74.113.232.139 -> 10
74.113.232.142 -> 10
74.113.232.143 -> 10
74.113.232.144 -> 10
74.114.44.2 -> 20
74.114.132.150 -> 60
74.123.198.5 -> 30
74.125.60.158 -> 1084
74.205.117.244 -> 33
75.101.209.57 -> 4
75.126.196.171 -> 50
75.126.196.172 -> 50
75.126.196.173 -> 40
75.127.97.128 -> 5
76.11.16.184 -> 30
76.21.43.165 -> 3
76.74.249.242 -> 10
76.77.154.193 -> 2
77.37.14.35 -> 18
77.37.164.154 -> 18
77.74.4.177 -> 3
77.75.49.5 -> 28
77.234.203.109 -> 15
77.246.44.37 -> 3
78.21.199.166 -> 2
78.31.11.33 -> 14
78.31.14.125 -> 14
78.40.120.244 -> 15
78.42.40.76 -> 30
78.46.16.75 -> 9
78.46.17.23 -> 6
78.46.20.220 -> 20
78.46.57.7 -> 6
78.46.77.86 -> 16
78.46.90.209 -> 6
78.46.114.34 -> 10
78.46.234.138 -> 18
78.47.24.163 -> 19
78.47.25.109 -> 12
78.47.25.110 -> 12
78.47.25.121 -> 6
78.47.40.226 -> 3
78.47.81.181 -> 4
78.47.142.11 -> 30
78.47.225.214 -> 8
78.100.89.194 -> 45
78.108.122.1 -> 2
78.109.87.141 -> 162
78.129.135.227 -> 8
78.224.176.91 -> 8
79.129.116.39 -> 8
79.136.114.202 -> 628
79.142.254.68 -> 30
79.143.75.110 -> 30
79.175.176.49 -> 14
80.70.184.193 -> 10
80.70.214.71 -> 14
80.80.15.20 -> 4
80.82.207.86 -> 15
80.88.241.126 -> 15
80.90.61.76 -> 8
80.91.33.133 -> 1202
80.94.65.132 -> 15
80.136.82.251 -> 2
80.149.252.146 -> 24
80.227.5.18 -> 15
80.246.185.194 -> 21
81.1.213.1 -> 15
81.4.123.206 -> 8
81.136.148.231 -> 2
81.169.220.253 -> 2
81.198.186.18 -> 28
82.80.226.102 -> 5
82.94.171.7 -> 7
82.113.48.62 -> 15
82.115.102.186 -> 16
83.42.24.252 -> 20
83.82.158.96 -> 40
83.103.77.3 -> 5
83.161.14.106 -> 20
83.167.65.38 -> 46
83.167.225.168 -> 13
83.169.62.37 -> 84
83.229.185.14 -> 3
83.244.211.222 -> 2
84.31.128.152 -> 2
84.53.65.28 -> 13
84.100.81.96 -> 4
84.208.15.12 -> 1120
84.210.222.207 -> 3
85.10.198.22 -> 6
85.10.223.66 -> 15
85.10.223.67 -> 31
85.10.223.69 -> 11
85.10.223.71 -> 10
85.10.255.72 -> 3
85.10.255.132 -> 3
85.10.255.134 -> 2
85.17.217.10 -> 20
85.17.217.12 -> 20
85.17.231.193 -> 45
85.17.231.194 -> 8
85.18.201.25 -> 2
85.21.237.138 -> 35
85.25.24.228 -> 5
85.113.34.9 -> 44
85.118.60.4 -> 15
85.133.69.250 -> 14
85.143.163.190 -> 25
85.214.22.153 -> 30
85.214.47.178 -> 46
85.214.67.4 -> 15
85.218.241.37 -> 10
85.255.19.254 -> 2
86.51.177.4 -> 63
86.57.155.118 -> 112
86.57.255.90 -> 15
86.62.78.101 -> 3
87.85.173.82 -> 59
87.117.167.122 -> 60
87.233.13.210 -> 18
87.233.82.10 -> 20
87.233.156.242 -> 20
87.233.221.196 -> 20
87.233.229.242 -> 10
87.233.241.86 -> 10
87.242.74.154 -> 30
87.246.109.110 -> 2
88.157.130.126 -> 10
88.159.11.200 -> 85
88.178.104.132 -> 10
88.198.100.85 -> 18
88.198.106.237 -> 3
88.198.184.196 -> 3
88.198.200.171 -> 3
88.198.200.207 -> 12
88.198.208.23 -> 4
88.198.222.80 -> 17
88.198.222.106 -> 26
88.198.235.204 -> 9
88.212.226.68 -> 4
89.31.3.9 -> 36
89.68.64.91 -> 20
89.77.178.84 -> 20
89.97.236.178 -> 7
89.107.215.206 -> 2
89.108.106.104 -> 13
89.113.16.17 -> 19
89.113.131.120 -> 15
89.191.66.58 -> 18
89.191.67.31 -> 19
89.191.67.71 -> 19
89.191.67.117 -> 18
89.191.67.128 -> 19
89.191.67.129 -> 19
89.191.68.121 -> 18
89.191.68.127 -> 19
89.191.68.128 -> 19
89.191.68.175 -> 19
89.191.68.176 -> 19
89.191.68.177 -> 19
89.191.68.213 -> 19
89.191.68.215 -> 36
89.191.68.229 -> 19
89.191.68.234 -> 19
89.191.68.236 -> 19
89.223.10.18 -> 100
89.238.149.4 -> 3
89.248.209.19 -> 61
90.26.32.91 -> 3
90.83.36.113 -> 3
90.216.134.193 -> 30
91.35.235.28 -> 13
91.74.184.34 -> 4
91.74.184.67 -> 2
91.74.184.74 -> 3
91.89.147.244 -> 40
91.118.44.34 -> 32
91.120.61.154 -> 13
91.121.91.54 -> 18
91.121.119.47 -> 8
91.121.136.148 -> 2
91.121.156.217 -> 5
91.121.161.213 -> 17
91.121.171.70 -> 15
91.183.39.50 -> 13
91.189.249.198 -> 14
91.194.188.90 -> 7
91.199.181.7 -> 3
91.213.82.241 -> 8
91.213.91.28 -> 8
91.215.36.5 -> 4
91.220.201.254 -> 6
91.225.237.2 -> 20
91.234.52.254 -> 3
91.234.194.89 -> 19
91.236.183.223 -> 40
91.239.186.133 -> 13
91.250.75.236 -> 9
92.50.100.22 -> 26
92.60.9.66 -> 2
92.63.172.59 -> 15
92.103.191.10 -> 8
92.238.56.98 -> 2
92.242.13.250 -> 10
92.243.11.223 -> 14
92.243.15.179 -> 13
92.243.16.24 -> 26
92.243.31.79 -> 18
92.243.31.243 -> 14
93.64.134.186 -> 13
93.94.224.131 -> 6
93.180.69.44 -> 2
93.180.71.3 -> 30
93.190.71.150 -> 18
94.23.21.169 -> 54
94.23.169.246 -> 3
94.23.238.64 -> 8
94.25.125.166 -> 65
94.42.165.43 -> 8
94.42.167.36 -> 134
94.75.197.162 -> 24
94.75.197.163 -> 8
94.75.199.161 -> 359
94.75.231.210 -> 16
94.79.184.234 -> 2
94.181.180.60 -> 15
94.182.129.34 -> 23
94.198.63.246 -> 8
94.232.57.6 -> 20
94.236.18.161 -> 3
94.236.18.164 -> 3
94.236.106.132 -> 135
94.236.111.49 -> 2
94.242.57.7 -> 36
94.242.57.74 -> 60
94.242.57.178 -> 60
94.242.58.52 -> 60
94.242.58.53 -> 60
94.242.58.54 -> 48
94.242.58.55 -> 84
94.242.58.56 -> 60
94.242.58.57 -> 48
94.242.58.58 -> 12
94.242.58.59 -> 72
94.242.58.152 -> 48
94.242.58.153 -> 60
94.242.58.155 -> 48
94.242.58.169 -> 60
94.242.58.170 -> 84
94.242.58.201 -> 60
94.242.58.216 -> 60
94.242.58.229 -> 96
94.242.58.230 -> 36
95.31.8.51 -> 31
95.37.185.218 -> 15
95.47.182.106 -> 30
95.107.0.96 -> 14
95.128.36.63 -> 7
95.138.140.236 -> 2
95.142.31.84 -> 2
95.163.87.6 -> 20
95.168.192.78 -> 13
95.211.12.65 -> 60
95.211.12.66 -> 10
95.211.97.24 -> 15
95.211.98.5 -> 30
95.211.98.6 -> 15
95.213.132.170 -> 15
95.213.146.85 -> 14
96.127.57.42 -> 2
96.225.126.53 -> 22
96.226.101.36 -> 2
96.244.75.189 -> 10
97.107.128.171 -> 4
98.122.98.225 -> 2
99.236.248.102 -> 2
101.162.63.76 -> 20
103.234.145.253 -> 30
103.254.156.229 -> 14
103.254.156.230 -> 14
104.130.6.102 -> 2
104.130.9.106 -> 2
104.130.16.131 -> 3
104.130.16.155 -> 2
104.130.25.126 -> 3
104.131.7.228 -> 11
104.131.9.124 -> 2
104.131.17.17 -> 20
104.131.19.158 -> 20
104.131.19.179 -> 20
104.131.19.181 -> 20
104.131.38.85 -> 10
104.131.60.81 -> 2
104.131.62.195 -> 15
104.131.63.98 -> 11
104.131.75.221 -> 20
104.131.81.65 -> 10
104.131.92.64 -> 10
104.131.228.245 -> 10
104.131.231.123 -> 11
104.131.245.8 -> 10
104.155.1.44 -> 36
104.155.1.238 -> 9
104.155.3.243 -> 36
104.155.5.161 -> 9
104.200.29.252 -> 2
104.236.10.6 -> 10
104.236.25.223 -> 10
104.236.174.21 -> 15
106.120.152.236 -> 2
106.185.25.64 -> 18
107.0.100.18 -> 3
107.6.141.130 -> 2
107.6.141.154 -> 17
107.21.15.18 -> 3
107.21.119.144 -> 10
107.21.220.239 -> 10
107.22.76.114 -> 30
107.22.90.18 -> 20
107.23.7.76 -> 67
107.23.117.139 -> 5
107.23.129.83 -> 2
107.23.162.47 -> 10
107.23.164.80 -> 8
107.23.193.175 -> 5
107.23.207.159 -> 8
107.170.59.207 -> 10
107.170.186.220 -> 3
108.176.232.30 -> 12
108.233.254.175 -> 15
109.24.183.175 -> 6
109.67.162.250 -> 15
109.107.35.139 -> 9
109.107.36.138 -> 9
109.107.38.48 -> 9
109.107.38.53 -> 9
109.188.125.13 -> 15
109.190.90.239 -> 15
109.202.72.111 -> 13
109.234.3.35 -> 160
109.239.58.236 -> 16
109.239.99.212 -> 15
110.84.1.68 -> 2
111.206.115.228 -> 15
114.80.245.62 -> 132
115.198.47.126 -> 4
116.68.212.232 -> 2
117.203.36.5 -> 18
119.9.82.109 -> 2
119.15.96.11 -> 60
119.252.76.162 -> 1064
122.99.116.118 -> 8
122.164.13.234 -> 15
122.170.38.20 -> 15
122.220.195.210 -> 30
123.49.19.137 -> 9
124.171.11.244 -> 15
124.205.129.97 -> 5
127.0.0.1 -> 4
128.61.194.41 -> 2
128.142.141.25 -> 2
128.199.51.40 -> 4
128.199.60.184 -> 13
128.219.49.14 -> 2
128.237.28.17 -> 2
129.67.24.6 -> 10
129.67.24.13 -> 10
129.67.24.20 -> 20
129.67.24.30 -> 10
129.67.24.45 -> 10
129.67.24.46 -> 10
129.67.24.48 -> 15
129.67.24.74 -> 10
129.67.24.107 -> 15
129.67.24.110 -> 10
129.67.24.164 -> 10
129.67.24.251 -> 15
129.67.25.50 -> 10
129.67.25.156 -> 15
129.67.26.99 -> 10
129.67.26.186 -> 10
129.67.27.45 -> 10
129.67.27.48 -> 10
129.67.27.59 -> 10
129.67.27.62 -> 15
129.67.27.68 -> 10
129.67.27.117 -> 10
129.67.27.148 -> 15
129.67.27.205 -> 10
129.67.27.214 -> 30
129.67.27.215 -> 60
129.125.2.237 -> 18
130.89.1.236 -> 40
130.117.40.34 -> 22
130.193.66.76 -> 60
130.199.3.165 -> 10
130.211.50.176 -> 9
130.211.81.197 -> 36
130.211.100.91 -> 9
130.211.154.1 -> 2
130.211.169.82 -> 8
130.211.172.167 -> 8
130.211.172.220 -> 5
130.211.187.76 -> 8
131.103.28.254 -> 15
131.169.56.104 -> 2
131.169.80.145 -> 2
131.174.30.35 -> 7
132.229.34.99 -> 95
134.75.123.238 -> 3
134.119.20.172 -> 2
134.169.18.173 -> 45
136.243.233.130 -> 30
136.243.255.244 -> 30
137.117.176.158 -> 75
137.117.176.210 -> 28
137.117.177.150 -> 14
137.117.180.46 -> 56
137.117.180.241 -> 120
137.117.181.192 -> 30
137.117.181.224 -> 14
137.117.182.62 -> 42
137.117.182.77 -> 75
137.117.182.122 -> 60
137.117.183.81 -> 28
137.117.184.211 -> 105
137.117.184.219 -> 90
137.117.185.75 -> 15
137.117.186.96 -> 150
137.135.241.142 -> 30
137.135.244.50 -> 45
137.208.8.164 -> 8
141.101.56.16 -> 16
141.138.90.60 -> 2
141.211.245.35 -> 10
142.1.96.30 -> 8
142.1.96.87 -> 21
142.103.203.1 -> 3
142.150.190.67 -> 11
143.210.16.81 -> 26
143.210.16.83 -> 26
143.210.16.84 -> 26
143.210.16.138 -> 26
143.210.16.140 -> 26
144.63.247.4 -> 3
144.76.4.49 -> 16
144.76.41.70 -> 3
144.76.68.247 -> 15
144.76.71.216 -> 8
144.76.77.38 -> 39
144.76.81.209 -> 11
144.76.82.78 -> 120
144.76.102.132 -> 5
144.76.104.150 -> 15
144.76.117.56 -> 25
144.76.137.134 -> 6
144.76.151.58 -> 11
144.76.156.176 -> 23
144.76.156.180 -> 64
144.76.160.62 -> 20
144.76.223.103 -> 3
144.76.225.48 -> 6
144.76.225.49 -> 3
144.76.225.50 -> 16
144.76.234.43 -> 7
144.76.236.146 -> 2
144.76.238.251 -> 20
144.92.16.161 -> 16
144.160.98.91 -> 7
144.160.98.92 -> 7
144.160.98.93 -> 7
146.0.2.253 -> 4
146.82.91.193 -> 39
146.148.8.217 -> 9
146.148.20.32 -> 9
146.148.22.192 -> 9
146.148.60.68 -> 5
146.148.116.175 -> 36
146.148.117.10 -> 18
146.148.118.146 -> 9
146.148.126.136 -> 27
146.185.183.13 -> 10
147.203.99.20 -> 60
147.203.100.100 -> 18
147.203.161.217 -> 40
148.87.19.194 -> 3
148.251.1.74 -> 9
148.251.2.47 -> 6
148.251.6.118 -> 18
148.251.13.131 -> 9
148.251.23.199 -> 8
148.251.43.35 -> 8
148.251.49.20 -> 6
148.251.50.7 -> 3
148.251.66.229 -> 6
148.251.69.212 -> 138
148.251.69.217 -> 36
148.251.69.218 -> 54
148.251.69.219 -> 46
148.251.87.207 -> 23
148.251.112.153 -> 240
148.251.131.169 -> 32
148.251.131.189 -> 11
148.251.131.250 -> 56
148.251.134.114 -> 9
148.251.138.133 -> 3
148.251.193.162 -> 6
148.251.193.163 -> 3
148.251.193.164 -> 6
148.251.193.165 -> 9
148.251.195.19 -> 10
149.6.185.90 -> 64
149.172.92.217 -> 8
150.101.178.80 -> 30
150.199.111.23 -> 9
150.252.134.118 -> 2
152.90.220.17 -> 37
152.90.220.18 -> 36
153.96.42.29 -> 18
154.66.205.242 -> 15
157.166.251.1 -> 25
157.180.240.73 -> 2
162.13.64.51 -> 2
162.13.95.54 -> 45
162.13.102.148 -> 2
162.13.115.186 -> 20
162.217.12.67 -> 2
162.221.224.49 -> 52
162.221.226.158 -> 52
162.221.226.174 -> 26
162.221.226.176 -> 26
162.242.252.62 -> 2
162.243.140.20 -> 16
162.243.188.66 -> 10
162.248.221.54 -> 45
162.248.221.187 -> 10
162.252.175.159 -> 10
163.49.71.201 -> 2
163.49.71.203 -> 2
166.90.142.9 -> 4
167.114.0.32 -> 13
167.114.67.11 -> 2
167.114.97.57 -> 2
171.33.133.58 -> 15
172.20.20.20 -> 13
172.20.20.22 -> 26
172.20.20.27 -> 26
172.20.20.30 -> 13
172.20.20.172 -> 13
172.29.141.101 -> 18
172.30.50.67 -> 2
173.11.48.149 -> 60
173.39.211.196 -> 4
173.39.226.123 -> 2
173.39.227.197 -> 2
173.39.234.33 -> 2
173.192.228.131 -> 30
173.203.139.108 -> 156
173.255.199.22 -> 4
173.255.243.139 -> 168
174.26.205.52 -> 45
174.31.183.172 -> 9
174.90.126.4 -> 12
174.103.128.249 -> 40
174.129.48.59 -> 15
174.129.154.79 -> 20
174.129.166.0 -> 2
176.9.37.247 -> 27
176.9.91.176 -> 3
176.9.212.166 -> 16
176.28.53.45 -> 8
176.28.124.132 -> 15
176.31.229.173 -> 13
176.31.232.152 -> 18
176.34.64.113 -> 5
176.34.84.84 -> 8
176.34.128.180 -> 15
176.58.88.152 -> 30
176.58.88.166 -> 40
176.58.90.63 -> 10
176.58.90.77 -> 45
176.58.90.90 -> 30
176.58.90.144 -> 30
176.58.93.124 -> 15
176.58.93.149 -> 10
176.97.36.3 -> 19
178.18.85.86 -> 10
178.32.54.253 -> 14
178.32.248.207 -> 13
178.33.237.11 -> 8
178.33.237.135 -> 13
178.62.69.228 -> 15
178.62.213.239 -> 48
178.63.93.73 -> 40
178.63.142.85 -> 65
178.79.152.75 -> 30
178.168.79.41 -> 15
178.216.202.38 -> 15
178.250.146.83 -> 8
180.150.131.108 -> 2
180.179.55.10 -> 18
180.179.116.54 -> 5
180.179.174.219 -> 1720
184.68.101.234 -> 30
184.73.10.158 -> 15
184.73.44.163 -> 3
184.106.13.225 -> 17
184.106.13.229 -> 23
184.106.13.231 -> 46
184.154.52.146 -> 9
184.168.128.52 -> 15
184.168.128.54 -> 14
184.169.252.12 -> 27
184.172.46.20 -> 2
184.173.149.15 -> 5
184.173.149.16 -> 8
185.6.246.1 -> 20
185.13.90.131 -> 36
185.17.41.221 -> 8
185.20.227.155 -> 51
185.20.227.198 -> 102
185.32.100.20 -> 26
185.39.80.16 -> 36
185.40.8.59 -> 285
185.40.8.139 -> 295
185.50.24.118 -> 15
185.55.52.139 -> 30
186.67.186.2 -> 50
187.207.15.89 -> 2
188.40.68.69 -> 3
188.40.90.173 -> 10
188.64.128.39 -> 30
188.75.73.34 -> 15
188.93.208.132 -> 18
188.94.26.119 -> 6
188.138.32.82 -> 10
188.138.41.71 -> 15
188.138.60.101 -> 13
188.165.150.136 -> 18
188.165.219.39 -> 15
188.215.38.246 -> 2
188.226.139.174 -> 15
188.226.245.167 -> 15
189.89.101.151 -> 2
189.89.206.4 -> 3
190.22.227.72 -> 8
190.96.65.130 -> 13
190.98.202.219 -> 60
190.196.122.171 -> 40
190.196.122.220 -> 20
192.73.240.72 -> 60
192.73.240.106 -> 45
192.73.240.212 -> 30
192.73.242.66 -> 10
192.73.242.182 -> 90
192.73.243.59 -> 45
192.73.243.65 -> 20
192.73.243.115 -> 60
192.73.244.113 -> 15
192.73.244.171 -> 50
192.73.248.45 -> 30
192.73.248.229 -> 30
192.73.252.145 -> 60
192.73.252.179 -> 30
192.99.18.64 -> 3
192.99.38.217 -> 13
192.99.40.162 -> 15
192.99.44.57 -> 13
192.99.44.58 -> 13
192.99.44.59 -> 13
192.99.44.62 -> 13
192.99.44.63 -> 13
192.99.44.64 -> 13
192.99.154.56 -> 2
192.99.212.215 -> 2
192.118.71.177 -> 2
192.118.71.178 -> 2
192.121.132.138 -> 2
192.124.26.250 -> 10
192.133.141.16 -> 26
192.133.141.142 -> 26
192.133.141.145 -> 16
192.166.193.27 -> 5
192.168.1.50 -> 11
192.168.1.201 -> 11
192.168.11.36 -> 26
192.168.128.203 -> 13
192.168.206.145 -> 30
192.168.210.232 -> 10
192.168.241.115 -> 5
192.168.241.116 -> 3
192.169.212.29 -> 2
192.169.212.68 -> 3
192.184.80.62 -> 6
192.232.253.212 -> 2
192.235.75.62 -> 9
192.237.151.127 -> 210
192.237.247.31 -> 18
193.30.60.12 -> 36
193.30.60.24 -> 36
193.30.60.25 -> 36
193.30.60.33 -> 36
193.30.60.34 -> 36
193.30.60.40 -> 36
193.30.60.167 -> 36
193.30.60.204 -> 36
193.30.60.221 -> 36
193.30.60.234 -> 36
193.35.11.125 -> 4
193.40.112.3 -> 52
193.50.159.106 -> 13
193.84.27.10 -> 26
193.85.232.50 -> 16
193.93.0.8 -> 16
193.93.135.78 -> 2
193.104.37.24 -> 24
193.146.75.99 -> 26
193.146.75.180 -> 41
193.158.63.18 -> 19
193.174.152.164 -> 18
193.174.152.167 -> 18
193.181.4.32 -> 28
193.181.4.160 -> 14
193.181.5.79 -> 14
193.181.6.4 -> 7
193.181.6.222 -> 7
193.190.253.150 -> 14
193.192.58.163 -> 13
193.192.59.41 -> 18
193.227.245.73 -> 39
193.234.240.72 -> 14
193.234.241.71 -> 14
193.234.241.72 -> 14
193.234.241.140 -> 28
193.234.241.205 -> 14
193.234.242.10 -> 14
193.234.242.134 -> 28
193.234.242.157 -> 14
193.234.243.70 -> 28
193.240.146.68 -> 2
194.6.194.141 -> 24
194.7.83.92 -> 4
194.12.213.73 -> 10
194.48.128.222 -> 8
194.58.90.185 -> 119
194.60.217.187 -> 6
194.68.177.105 -> 14
194.68.177.131 -> 14
194.68.178.93 -> 14
194.68.178.149 -> 28
194.76.107.17 -> 48
194.77.141.161 -> 8
194.80.113.3 -> 5
194.97.4.7 -> 36
194.103.36.101 -> 14
194.103.36.111 -> 14
194.103.37.90 -> 28
194.103.37.176 -> 28
194.105.248.50 -> 2
194.132.152.200 -> 28
194.132.153.75 -> 14
194.132.153.106 -> 14
194.132.177.5 -> 2
194.132.177.9 -> 28
194.132.177.40 -> 14
194.132.177.79 -> 14
194.132.177.109 -> 28
194.132.179.86 -> 14
194.132.179.120 -> 14
194.132.179.165 -> 14
194.132.179.185 -> 14
194.132.179.219 -> 28
194.150.58.58 -> 2
194.162.123.113 -> 36
194.165.34.226 -> 15
194.177.215.120 -> 9
194.254.145.253 -> 14
195.56.182.108 -> 20
195.64.164.134 -> 38
195.64.164.226 -> 38
195.66.81.4 -> 4
195.71.92.70 -> 2
195.82.85.92 -> 19
195.88.87.173 -> 8
195.88.195.153 -> 2
195.101.165.10 -> 18
195.145.19.12 -> 170
195.151.247.69 -> 30
195.154.35.156 -> 13
195.154.77.170 -> 13
195.154.168.53 -> 8
195.154.169.73 -> 8
195.154.169.98 -> 8
195.154.169.122 -> 8
195.154.170.20 -> 13
195.154.182.51 -> 26
195.154.204.11 -> 26
195.154.233.202 -> 15
195.158.240.131 -> 26
195.171.206.198 -> 2
195.187.4.196 -> 13
195.210.47.239 -> 20
195.210.147.154 -> 30
195.211.120.147 -> 32
195.211.120.148 -> 16
195.234.145.3 -> 18
195.235.92.25 -> 2
196.36.224.242 -> 3
197.155.77.1 -> 30
198.58.75.132 -> 9
198.61.134.232 -> 2
198.61.134.234 -> 2
198.61.216.151 -> 15
198.62.63.10 -> 2
198.91.76.200 -> 40
198.105.198.4 -> 2
198.105.198.5 -> 2
198.199.71.18 -> 16
198.199.106.214 -> 10
198.199.127.211 -> 16
198.211.102.158 -> 16
199.20.71.230 -> 30
199.38.181.60 -> 90
199.38.182.96 -> 60
199.38.182.115 -> 10
199.38.183.96 -> 30
199.38.183.100 -> 20
199.38.183.118 -> 45
199.38.183.154 -> 120
199.38.183.176 -> 30
199.38.183.217 -> 45
199.68.238.7 -> 20
199.80.55.242 -> 2
199.127.193.68 -> 30
199.182.166.136 -> 32
200.6.73.40 -> 26
200.28.3.2 -> 60
200.28.3.3 -> 70
200.28.26.34 -> 30
200.80.170.70 -> 3
200.205.11.2 -> 3
200.205.195.2 -> 3
202.78.200.137 -> 15
202.143.95.26 -> 60
203.2.35.196 -> 2
203.4.200.68 -> 30
204.14.236.210 -> 2
204.38.32.101 -> 10
204.77.168.241 -> 1439
204.77.169.137 -> 448
204.78.58.135 -> 3
204.152.18.22 -> 15
204.197.211.70 -> 2
204.232.160.221 -> 15
204.232.190.16 -> 10
204.232.190.18 -> 30
205.144.162.130 -> 6
205.147.105.127 -> 20
205.157.110.11 -> 30
205.172.172.132 -> 12
205.209.7.101 -> 60
206.142.225.196 -> 4
208.47.132.224 -> 2
208.48.140.4 -> 16
208.48.140.5 -> 15
208.65.107.61 -> 14
208.65.107.104 -> 30
208.66.176.6 -> 3
208.68.87.196 -> 2
208.68.163.134 -> 5
208.71.186.130 -> 20
208.78.169.4 -> 10
208.111.39.127 -> 15
208.111.39.239 -> 45
208.113.156.25 -> 131
209.10.41.94 -> 4
209.36.27.229 -> 10
209.81.95.196 -> 2
209.177.145.34 -> 80
209.177.145.103 -> 15
209.177.145.225 -> 30
209.177.156.193 -> 60
209.216.233.52 -> 360
209.237.233.37 -> 2
210.54.34.30 -> 10
210.75.252.235 -> 30
210.177.66.30 -> 20
210.245.80.75 -> 7
211.154.151.116 -> 57
212.23.1.84 -> 26
212.46.228.121 -> 20
212.63.81.20 -> 2
212.64.137.215 -> 20
212.64.148.4 -> 2
212.67.220.58 -> 13
212.71.253.198 -> 10
212.73.212.217 -> 13
212.77.185.81 -> 7
212.83.148.198 -> 3
212.83.167.232 -> 13
212.83.187.74 -> 40
212.100.229.30 -> 2
212.162.62.254 -> 16
212.192.155.74 -> 40
212.198.247.205 -> 23
212.204.82.210 -> 8
212.209.45.98 -> 11
212.211.134.171 -> 8
212.211.146.197 -> 3
212.224.102.218 -> 13
212.246.140.250 -> 3
212.248.85.254 -> 10
212.250.119.130 -> 6
213.21.34.254 -> 40
213.33.228.122 -> 15
213.39.51.58 -> 26
213.95.2.5 -> 20
213.135.92.86 -> 17
213.136.96.109 -> 8
213.144.14.234 -> 20
213.180.206.193 -> 16
213.209.110.45 -> 9
213.224.23.198 -> 104
213.235.217.243 -> 18
213.239.192.202 -> 18
213.239.192.210 -> 36
213.239.192.211 -> 72
213.242.67.150 -> 10
216.46.166.52 -> 2
216.46.173.126 -> 2350
216.69.191.97 -> 8
216.127.39.200 -> 13
216.139.209.127 -> 2
216.139.210.211 -> 4
216.139.210.212 -> 2
216.139.222.171 -> 4
216.139.222.188 -> 4
216.172.57.8 -> 26
216.172.57.18 -> 26
216.220.38.230 -> 15
216.245.129.124 -> 2
216.245.170.211 -> 40
217.9.46.69 -> 14
217.10.138.130 -> 8
217.14.87.68 -> 16
217.23.150.52 -> 20
217.64.170.250 -> 92
217.69.78.20 -> 22
217.74.40.126 -> 15
217.77.130.175 -> 10
217.79.184.60 -> 18
217.110.111.101 -> 3
217.115.201.140 -> 2
217.117.28.198 -> 8
217.122.117.191 -> 9
217.128.52.246 -> 13
217.158.151.69 -> 10
217.168.17.5 -> 216
217.168.17.150 -> 23
217.168.17.158 -> 10
217.168.17.180 -> 22
217.168.17.243 -> 12
217.170.191.92 -> 4
217.212.243.9 -> 48
220.135.181.202 -> 14
